aa,21,22
aai,23,24,26
aak,21,23
aam,23,24,25
aan,24,25
aang,21,24
aap,21,22,23,24
aat,22,23,24,25
aau,23,24
ai,21,24,26
ak,24,26
am,24,25,26
an,21,22,24,26
ang,21,22,24,25
ap,22,26
at,23,25
au,21,26
e,21,25
ei,21,22,25
ek,22,24,25,26
eng,22,23,25,26
eoi,22,24,25
eon,22,23,24
eot,21,23,24,26
i,22,24
ik,21,22,23,25
im,22,23,25
in,22,25,26
ing,23,25,26
ip,21,22,23,24,26
it,22,23,24,25,26
iu,21,23,24,25,26
o,21,23,25
oe,21,25,26
oek,22,24,26
oeng,22,25
oi,21,22,26
ok,21,22,24,25,26
on,21,23,24,25
ong,25,26
ot,21,22,24
ou,21,22,23,26
u,21,23,26
ui,21,22,25,26
uk,21,22,23,24,25
un,22,23,24,26
ung,22,23,26
ut,21,23,25,26
yu,21,24,25,26
yun,22,23
yut,21,22,23,25,26
