 ,
b,11,12,13,14
c,11,13,14,16
d,12,13,14,15
f,11,12,14
g,11,13
gw,11,12,13,14,15
h,11,12,15
j,12,14,15
k,11,12,13,15
kw,11,12,14,15,16
l,11,12,13
m,11,13,14
n,11,13,14,15
ng,11,12,14,15
p,11,12,13,14,16
s,12,13,14
t,12,13,14,15,16
w,12,14,15,16
z,11,14
